 Akash - 2 - Login Success - Wed Oct 19 2022 15:14:10 GMT+0530 (India Standard Time)
 Akash - 2 - GetData Success - Wed Oct 19 2022 15:14:10 GMT+0530 (India Standard Time)
 Akash - 3 - Login Failure - Wed Oct 19 2022 15:14:22 GMT+0530 (India Standard Time)
 Krishna - 3 - Login Failure - Wed Oct 19 2022 15:14:37 GMT+0530 (India Standard Time)
 Krishna - 4 - Login Success - Wed Oct 19 2022 15:15:31 GMT+0530 (India Standard Time)
 Krishna - 4 - GetData Failure - Wed Oct 19 2022 15:15:31 GMT+0530 (India Standard Time)
 Akash - 2 - Login Success - Wed Oct 19 2022 15:18:33 GMT+0530 (India Standard Time)
 Akash - 2 - GetData Success - Wed Oct 19 2022 15:18:33 GMT+0530 (India Standard Time)
 Akash - 2 - Login Success - Wed Oct 19 2022 15:18:48 GMT+0530 (India Standard Time)
 Akash - 2 - GetData Success - Wed Oct 19 2022 15:18:48 GMT+0530 (India Standard Time)
 Akash - 3 - Login Failure - Wed Oct 19 2022 15:19:03 GMT+0530 (India Standard Time)
 Akash - 4 - Login Success - Wed Oct 19 2022 15:19:09 GMT+0530 (India Standard Time)
 Akash - 4 - GetData Failure - Wed Oct 19 2022 15:19:09 GMT+0530 (India Standard Time)